// Jest Snapshot v1, https://goo.gl/fbAQLP

exports[` 1`] = `
<div
  className={undefined}
  id="Home"
>
  <div
    className=""
  />
  <div
    className=""
  >
    <header
      className={undefined}
    >
      <nav>
        <ul>
          <li>
            <a
              aria-current={false}
              className={undefined}
              href="/"
              id="home"
              onClick={[Function]}
              style={undefined}
            >
              Home
            </a>
          </li>
          <li>
            <a
              aria-current={false}
              className={undefined}
              href="/sample"
              id="sample"
              onClick={[Function]}
              style={undefined}
            >
              Sample
            </a>
          </li>
          <li>
            <a
              aria-current={false}
              className={undefined}
              href="/sample2"
              id="sample2"
              onClick={[Function]}
              style={undefined}
            >
              Sample2
            </a>
          </li>
        </ul>
      </nav>
    </header>
    <div
      className={undefined}
    >
      <fieldset>
        <legend>
          Layout Home
        </legend>
        <div
          className={undefined}
        >
          1 String sample text!
        </div>
        <div
          className={undefined}
        >
          2 String sample text!
        </div>
        <div
          className={undefined}
        >
          1 String sample text!
        </div>
        <div
          className={undefined}
        >
          2 String sample text!
        </div>
        <div
          className={undefined}
        >
          Error: 
          Some advertisement...
        </div>
        <div
          className={undefined}
          id="Loading"
        >
          <div
            className={undefined}
          />
          <p
            className={undefined}
          >
            Loading...
          </p>
        </div>
      </fieldset>
    </div>
  </div>
  <div
    className=""
  />
</div>
`;
